\relax 
\providecommand\hyper@newdestlabel[2]{}
\providecommand\HyperFirstAtBeginDocument{\AtBeginDocument}
\HyperFirstAtBeginDocument{\ifx\hyper@anchor\@undefined
\global\let\oldcontentsline\contentsline
\gdef\contentsline#1#2#3#4{\oldcontentsline{#1}{#2}{#3}}
\global\let\oldnewlabel\newlabel
\gdef\newlabel#1#2{\newlabelxx{#1}#2}
\gdef\newlabelxx#1#2#3#4#5#6{\oldnewlabel{#1}{{#2}{#3}}}
\AtEndDocument{\ifx\hyper@anchor\@undefined
\let\contentsline\oldcontentsline
\let\newlabel\oldnewlabel
\fi}
\fi}
\global\let\hyper@last\relax 
\gdef\HyperFirstAtBeginDocument#1{#1}
\providecommand\HyField@AuxAddToFields[1]{}
\providecommand\HyField@AuxAddToCoFields[2]{}
\gdef \LT@i {\LT@entry 
    {1}{152.92793pt}\LT@entry 
    {1}{317.33789pt}}
\@writefile{lof}{\contentsline {figure}{\numberline {1}{\ignorespaces Steps to generate data and test online machine learning prediction.}}{4}{figure.0.1}}
\newlabel{fig-data-generation}{{1}{4}{Steps to generate data and test online machine learning prediction}{figure.0.1}{}}
\@writefile{toc}{\contentsline {chapter}{\numberline {1}ArduPilot Data Generation}{5}{chapter.1}}
\@writefile{lof}{\addvspace {10\p@ }}
\@writefile{lot}{\addvspace {10\p@ }}
\@writefile{toc}{\contentsline {section}{\numberline {1.1}Inserting Attack Code}{5}{section.1.1}}
\@writefile{lol}{\contentsline {lstlisting}{attack.txt}{5}{lstlisting.1.-1}}
\@writefile{toc}{\contentsline {subsection}{\numberline {1.1.1}Patching AP\_Scheduler.cpp Addresses}{8}{subsection.1.1.1}}
\@writefile{lot}{\contentsline {table}{\numberline {1.1}{\ignorespaces The PMU is configured to use the above counters.}}{9}{table.1.1}}
\newlabel{tab-counter}{{1.1}{9}{The PMU is configured to use the above counters}{table.1.1}{}}
\@writefile{toc}{\contentsline {section}{\numberline {1.2}Inserting PMU Counter Reading Code}{9}{section.1.2}}
\@writefile{toc}{\contentsline {subsection}{\numberline {1.2.1}HardwareCounterThread}{9}{subsection.1.2.1}}
\@writefile{toc}{\contentsline {subsection}{\numberline {1.2.2}Modifying AP\_Scheduler.cpp}{10}{subsection.1.2.2}}
\@writefile{toc}{\contentsline {subsection}{\numberline {1.2.3}Flags in AP\_Scheduler.h}{10}{subsection.1.2.3}}
\@writefile{lot}{\contentsline {table}{\numberline {1.2}{\ignorespaces Flags contained in AP\_Scheduler.h enable toggling between main control loop data generation and task handler data generation.}}{10}{table.1.2}}
\newlabel{tab-flag}{{1.2}{10}{Flags contained in AP\_Scheduler.h enable toggling between main control loop data generation and task handler data generation}{table.1.2}{}}
\@writefile{toc}{\contentsline {section}{\numberline {1.3}Main Control Loop Data Generation}{10}{section.1.3}}
\@writefile{toc}{\contentsline {section}{\numberline {1.4}Task Handler Data Generation}{10}{section.1.4}}
\@writefile{toc}{\contentsline {section}{\numberline {1.5}Data Generation Scripts}{10}{section.1.5}}
\@writefile{lot}{\contentsline {table}{\numberline {1.3}{\ignorespaces Data generation script input and output descriptions.}}{11}{table.1.3}}
\newlabel{tab-script-input-output}{{1.3}{11}{Data generation script input and output descriptions}{table.1.3}{}}
\@writefile{lot}{\contentsline {table}{\numberline {1.4}{\ignorespaces Data generation scripts use environment variables. This table provides environment variables which must be set and their meaning.}}{11}{table.1.4}}
\newlabel{tab-path-change}{{1.4}{11}{Data generation scripts use environment variables. This table provides environment variables which must be set and their meaning}{table.1.4}{}}
\@writefile{toc}{\contentsline {section}{\numberline {1.6}Data Generation Commands}{11}{section.1.6}}
\@writefile{toc}{\contentsline {chapter}{\numberline {2}Machine Learning}{13}{chapter.2}}
\@writefile{lof}{\addvspace {10\p@ }}
\@writefile{lot}{\addvspace {10\p@ }}
\@writefile{toc}{\contentsline {section}{\numberline {2.1}LibSVM Model Generation}{13}{section.2.1}}
\@writefile{toc}{\contentsline {chapter}{\numberline {3}Provided Binaries}{17}{chapter.3}}
\@writefile{lof}{\addvspace {10\p@ }}
\@writefile{lot}{\addvspace {10\p@ }}
\@writefile{lot}{\contentsline {table}{\numberline {3.1}{\ignorespaces Provided binaries and their use.}}{17}{table.3.1}}
\newlabel{tab-binary}{{3.1}{17}{Provided binaries and their use}{table.3.1}{}}
\@writefile{toc}{\contentsline {section}{\numberline {3.1}arduplane}{17}{section.3.1}}
\@writefile{toc}{\contentsline {chapter}{\numberline {4}Video Demo}{18}{chapter.4}}
\@writefile{lof}{\addvspace {10\p@ }}
\@writefile{lot}{\addvspace {10\p@ }}
\@writefile{lof}{\contentsline {figure}{\numberline {4.1}{\ignorespaces AP\_Scheduler main control loop diagram.}}{18}{figure.4.1}}
\newlabel{fig-control-flow}{{4.1}{18}{AP\_Scheduler main control loop diagram}{figure.4.1}{}}
\@writefile{toc}{\contentsline {section}{\numberline {4.1}Contents}{19}{section.4.1}}
\@writefile{toc}{\contentsline {chapter}{\numberline {A}ArduPilot Installation}{20}{appendix.A}}
\@writefile{lof}{\addvspace {10\p@ }}
\@writefile{lot}{\addvspace {10\p@ }}
\@writefile{toc}{\contentsline {section}{\numberline {A.1}ArduPilot}{20}{section.A.1}}
\@writefile{toc}{\contentsline {section}{\numberline {A.2}JSBSim}{20}{section.A.2}}
\@writefile{toc}{\contentsline {section}{\numberline {A.3}ArduPlane WAF Build}{20}{section.A.3}}
\@writefile{toc}{\contentsline {section}{\numberline {A.4}Bash Shell Environment}{21}{section.A.4}}
